id_gericht	id_fall	v_datum	v_uhrzeit
444	12345	2019-08-04	10:35:00
333	12346	2019-10-08	09:00:00
444	12353	2019-12-10	14:00:00
222	12347	2019-09-01	10:00:00
445	12350	2022-09-14	12:00:00
445	12348	2020-02-02	09:00:00
444	12349	2020-03-03	11:00:00
