"id_mandant,""ma_nachname"",""ma_vorname"",""ma_geburtsdatum"",""ma_strasse"",""ma_hausnummer"",""ma_plz"",""ma_ort"",""ma_telefonnummer"",""ma_email"",""ma_geschlecht"""
"1111,""Schmidt"",""Stefan"",""1973-02-01"",""Poststrasse"",""12"",""13594"",""Berlin"",""030-2342348"",""st.schmidt@gmail.com"",""m"""
"1112,""Gerlach"",""Dieter"",""1963-04-02"",""Bahnhofstrasse"",""31"",""12203"",""Berlin"",""030-2342334"",""d.Gerlach@gerlach.de"",""m"""
"1113,""Peters"",""Peter"",""1923-05-03"",""Waldstrasse"",""2"",""12204"",""Berlin"",""030-2342322"",""pp@petersmobile.de"",""m"""
"1114,""Michel"",""Michael"",""1965-07-20"",""Dr.Michel-Strasse"",""1"",""12203"",""Berlin"",""030-23433333"",""BigBadDrM@mafiamichel.de"",""d"""
"1115,""Lustig"",""Peter"",""1977-11-14"",""Kurfürstendamm"",""200"",""10499"",""Leipzig"",""0341-1234567"",""Löwenzahn@t-online.de"",""m"""
"1116,""Alwadi"",""Memmet"",""2000-12-24"",""Unter den Linden"",""2"",""10455"",""Leipzig"",""0341-2020345"",""ichhabnixgemacht@innocent.de"",""m"""
"1117,""Tschaikowsky"",""Petra"",""1982-09-23"",""Philharmoniestrasse"",""101"",""13595"",""Berlin"",""030-2342348"",""Nummer5@online.de"",""w"""
"1118,""Wagner"",""Richard"",""1949-04-01"",""Bayreuther Strasse "",""3"",""13595"",""Berlin"",""030-2342348"",""Thor@odin.de"",""m"""
"1119,""Bach"",""Sebastian"",""1986-05-30"",""Leipziger Strasse"",""58"",""10100"",""Dresden"",""0311- 34593459"",""Fugenmeister@dt.de"",""m"""
"1120,""Beethoven"",""Ludwig"",""1982-09-23"",""Mendelssohn-Strasse"",""11"",""12120"",""Radebeul"",""03221-4958576"",""LvB@LvB.de"",""m"""
"1121,""Shnurov"",""Igor"",""1940-04-04"",""St. Petersburger-Allee"",""34"",""95448"",""Eckersdorf"",""0921-450453"",""Shnur@leningrad.ru"",""m"""
"1122,""Gomez"",""Marion"",""1989-01-21"",""Looser Weg"",""2"",""95544"",""Bayreuth"",""0921-229228"",""Gomez@vfb.de"",""w"""
"1123,""Reus"",""Toni"",""1978-10-28"",""Dortmunder Strasse"",""1"",""13599"",""Berlin"",""030-2342348"",""Toni@bvb.de"",""m"""
"1124,""Ribery"",""Franque"",""1988-01-23"",""Münchner Strasse"",""2019"",""12201"",""Berlin"",""030-29933945"",""jaderFranqu@fcb.de"",""m"""
"1125,""Simmons"",""Gene"",""1980-01-31"",""Kiss-Promenade"",""666"",""11011"",""Potsdam"",""0335-4596853"",""Tongue@Kiss.com"",""m"""
"1126,""De Guzman"",""Peer"",""1988-03-24"",""Fantasie Strasse"",""33"",""12203"",""Berlin"",""030-2342348"",""Peer@Leer.de"",""m"""
"1127,""Ling"",""Mai"",""2000-05-17"",""Falkenkorso"",""22"",""13959"",""Berlin"",""030-2342348"",""MaiLing@polt.de"",""w"""
"1128,""Thai"",""Mai"",""1999-09-09"",""Promillenweg"",""11"",""13959"",""Berlin"",""030-2342348"",""MaiThai@cocktails.com"",""w"""
"1129,""Bond"",""James"",""1967-02-03"",""Aston-Martin-Weg"",""7"",""13955"",""Berlin"",""030-2342348"",""007@MI6.uk"",""m"""
"1130,""Skunk"",""Anansie"",""1967-03-02"",""Biene Maja Parcours"",""23"",""14555"",""Hamburg"",""040-2000456"",""rockon@skunk.com"",""w"""
"1131,""Bond"",""Jane"",""1966-02-04"",""Moneypenny-Lane"",""700"",""80222"",""München"",""089-21234556"",""Bondgirl@MI6.uk"",""w"""
