"id_rechnung,""r_datum"",""r_rechnungsbetrag"",""id_fall"""
"2019001,""2019-01-02"",""3601.98"",12346"
"2019002,""2019-01-02"",""370.00"",12347"
"2019003,""2019-01-05"",""2156.90"",12348"
"2019004,""2019-01-06"",""2100.00"",12349"
"2019005,""2019-01-11"",""789.00"",12350"
"2019006,""2019-01-11"",""499.00"",12351"
"2019007,""2019-01-11"",""5499.00"",12352"
"2019008,""2019-01-20"",""6499.00"",12353"
