id_fall	id_mitarbeiter
12345	111
12345	112
12345	117
12346	114
12347	116
12347	118
12348	112
12348	117
12348	118
12349	115
12350	116
12350	118
12351	112
12351	114
12352	111
12352	116
12353	113
