﻿KID ;PID ;VID ;VUhrzeit ;VDatum ;VAnzahl 
3 ;1 ;4 ;09:35:42 ;05.08.2019 ;1 
12 ;5 ;5 ;11:37:13 ;06.08.2019 ;1 
6 ;3 ;7 ;09:40:19 ;06.08.2019 ;1 
2 ;6 ;4 ;09:42:40 ;05.08.2019 ;2 
8 ;8 ;4 ;11:34:32 ;06.08.2019 ;1 
10 ;11 ;7 ;09:41:54 ;06.08.2019 ;1 
