﻿PID ;LID ;LAnzahl ;LDatum ;Lieferpreis 
1 ;1 ;100 ;02.08.2019 ;1,00 
2 ;1 ;100 ;02.08.2019 ;1,00 
3 ;1 ;200 ;02.08.2019 ;1,30 
4 ;1 ;200 ;02.08.2019 ;1,50 
5 ;2 ;300 ;02.08.2019 ;0,80 
6 ;2 ;100 ;05.08.2019 ;1,50 
7 ;2 ;100 ;05.08.2019 ;0,25 
8 ;2 ;100 ;05.08.2019 ;0,25 
9 ;2 ;100 ;05.08.2019 ;1,00 
10 ;1 ;100 ;02.08.2019 ;1,50 
11 ;2 ;100 ;02.08.2019 ;0,80 
12 ;2 ;50 ;02.08.2019 ;1,50 
