sid,snachname,svorname,sgeb,snatio,groesse,gewicht,spielfuss,marktwert,technik,ausdauer,physis,mentalitaet,staerke
1,Reus,Marco,1983-07-20,DE,188,74,b,85000000,10,9,10,10,9
2,Bürki,Roman,1990-11-14,CH,192,83,l,14000000,5,8,9,7,8
3,Witsel,Axel,1989-01-12,BE,185,77,b,40000000,10,9,8,8,8
4,Götze,Mario,1992-06-03,DE,168,75,b,18000000,10,8,6,8,7
5,Alcacer,Paco,1993-08-30,ES,185,78,b,40000000,9,9,7,8,7
6,Balerdi,Leonardo,1999-01-26,AR,175,74,r,15000000,4,6,3,7,6
7,Müller,Thomas,1983-03-04,DE,183,80,b,45000000,8,9,5,10,7
8,Hummels,Mats,1988-12-16,DE,186,81,b,40000000,7,8,9,6,8
9,Martinez,Javi,1988-09-02,ES,190,83,b,30000000,8,8,7,10,9
10,Coman,Kingsley,1996-06-13,FR,178,75,b,50000000,9,9,8,7,6
11,Davies,Alphonso,2000-11-02,CA,170,71,l,10000000,6,7,5,6,6
12,Neuer,Manuel,1986-03-27,DE,193,89,r,22000000,7,7,9,9,9
13,Gulacsi,Peter,1990-05-06,HU,190,92,r,10000000,3,6,7,7,5
14,Orban,Willi,1992-11-03,HU,186,85,r,15000000,6,7,7,6,6
15,Halstenberg,Marcel,1991-09-27,DE,186,85,l,17000000,5,8,8,6,7
16,Sabitzer,Marcel,1994-03-17,AT,177,79,r,25000000,8,8,7,8,8
17,Bruma,Bruma,1994-10-24,PT,173,77,r,12500000,8,6,6,5,6
18,Poulsen,Yussuf,1994-06-05,DK,193,89,r,30000000,8,9,7,8,8
19,Trapp,Kevin,1990-07-08,DE,189,90,r,10000000,5,7,8,6,6
20,Willems,Jetro,1994-02-20,NL,169,75,l,6500000,5,6,4,5,5
21,Hasebe,Makoto,1984-05-03,JP,180,80,r,1000000,5,5,4,4,3
22,Kostic,Filip,1992-11-01,KR,184,86,l,15000000,7,7,7,6,7
23,Rode,Sebastian,1990-11-11,DE,179,80,r,3000000,5,5,6,4,4
24,Jovic,Luka,1997-12-23,KR,181,80,b,55000000,8,8,8,9,8
25,Özcan,Ramazan,1984-06-28,AT,187,83,l,400000,3,3,4,3,2
26,Bender,Sven,1998-04-27,DE,186,79,r,15000000,7,7,6,9,7
27,Weiser,Mitchel,1994-04-21,DE,177,77,r,12000000,7,6,6,6,6
28,Havertz,Kai,1999-06-11,DE,188,85,b,65000000,8,8,8,8,9
29,Bailey,Leon,1997-08-09,JM,178,74,b,35000000,9,7,7,7,8
30,Alario,Lucas,1992-10-08,AR,184,80,r,17000000,8,7,6,6,6
31,Jarstein,Rune,1984-09-28,NO,192,88,r,2000000,3,6,7,8,7
32,Stark,Niklas,1995-04-14,DE,190,85,r,20000000,7,7,7,7,6
33,Torunarigha,Jordan,1997-08-07,DE,191,91,l,10000000,5,8,8,5,6
34,Grujic,Marko,1996-04-13,CZ,191,83,r,18000000,8,6,7,7,6
35,Duda,Ondrej,1994-04-15,HR,181,78,r,15000000,8,6,6,6,6
36,Selke,Davie,1995-06-02,DE,194,88,r,20000000,7,8,7,8,7
37,Schubert,Markus,1998-10-02,DE,178,73,b,1000000,6,7,8,6,4
38,Wahlqvist,Linus,1996-05-23,SE,184,77,r,1250000,5,6,4,6,5
39,Kone,Moussa,1996-12-30,SE,175,74,b,4000000,6,7,8,6,6
40,Ebert,Patrick,1987-12-04,DE,177,78,b,600000,7,5,7,4,4
41,Kreuzer,Niklas,1993-02-20,DE,173,71,r,600000,5,4,6,5,5
42,Burnic,Dzenis,1998-05-22,DE,178,70,b,750000,6,4,5,6,6
(42 Zeilen)
vid,vname,strasse,hnr,plz,stadt,vtelefon,liga
1,Borussia Dortmund,Rheinlanddamm,207,44137,Dortmund,023190200,1
2,Bayern München,Säbener Straße,51,81547,München,089699310,1
3,RB Leipzig,Neumarkt,29,4109,Leipzig,0341124797777,1
4,Eintracht Frankfurt,Mörfelder Landstraße,362,60528,FRnkfurt/Main,069955030,1
5,Bayer Leverkusen,Bismarckstraße,122,51373,Leverkusen,021486600,1
6,Hertha BSC,Hanns-Braun-Straße Friesenhaus,2,14053,Berlin,0303009280,1
7,SG Dynamo Dresden,Lenestraße,10,10399,Dresden,035177885522,1
(7 Zeilen)
tid,tname,tvorname,tgeb,tnatio,ttelefon,system
1,Favre,Lucien,1957-11-02,CH,0176111,4-2-3-1
2,Kovac,Nico,1971-10-15,HR,0176222,4-2-3-1
3,Rangnick,Ralf,1958-06-29,DE,0176333,4-4-2
4,Hütter,Adi,1970-02-11,AT,0176444,3-4-1-2
5,Bosz,Peter,1963-11-21,NL,0176555,4-3-3
6,Dardai,Pal,1976-03-16,HU,0176666,4-2-3-1
7,Fiel,Christian,1980-03-12,DE,017859983,3-1-4-2
(7 Zeilen)
isocode,lname
AR,Argentinien
BE,Belgien
DK,Dänemark
DE,Deutschland
FR,Frankreich
JM,Jamaika
JP,Japan
CA,Kanada
HR,Kroatien
NO,Norwegen
AT,Österreich
PT,Portugal
SE,Schweden
CH,Schweiz
ES,Spanien
CZ,Tschechische Republik
HU,Ungarn
NL,Niederlande
KR,Süd Korea
(19 Zeilen)
pid,pname
1,TW
2,LV
3,RV
4,IV
5,DM
6,LA
7,ZM
8,RA
9,OM
10,ST
(10 Zeilen)
spid,heim,gast,toreheim,toregast,datum
1,2,1,0,5,2018-08-18
2,3,4,1,2,2018-08-18
3,5,6,2,0,2018-08-18
4,1,4,0,3,2018-08-25
5,2,3,4,1,2018-08-25
6,6,7,0,6,2018-08-25
7,7,4,3,1,2018-09-01
8,2,6,2,0,2018-09-01
9,5,3,1,1,2018-09-01
(9 Zeilen)
sid,vid,von,bis
1,1,2008-07-01,2019-06-30
2,1,2010-07-01,2021-06-30
3,1,2007-07-01,2020-06-30
4,1,2009-07-01,2019-06-30
5,1,2007-07-01,2023-06-30
6,1,2015-07-01,2019-06-30
7,2,2009-07-01,2020-06-30
8,2,2011-07-01,2022-06-30
9,2,2015-07-01,2022-06-30
10,2,2007-07-01,2022-06-30
11,2,2014-07-01,2021-06-30
12,2,2015-07-01,2023-06-30
13,3,2009-07-01,2021-06-30
14,3,2017-07-01,2020-06-30
15,3,2007-07-01,2019-06-30
16,3,2011-07-01,2019-06-30
17,3,2014-07-01,2021-06-30
18,3,2009-07-01,2022-06-30
19,4,2018-07-01,2019-06-30
20,4,2014-07-01,2022-06-30
21,4,2007-07-01,2019-06-30
22,4,2011-07-01,2023-06-30
23,4,2015-07-01,2021-06-30
24,4,2009-07-01,2022-06-30
25,5,2014-07-01,2019-06-30
26,5,2014-07-01,2023-06-30
27,5,2011-07-01,2021-06-30
28,5,2007-07-01,2019-06-30
29,5,2015-07-01,2019-06-30
30,5,2009-07-01,2020-06-30
31,6,2014-07-01,2019-06-30
32,6,2017-07-01,2021-06-30
33,6,2007-07-01,2023-06-30
34,6,2011-07-01,2020-06-30
35,6,2009-07-01,2019-06-30
36,6,2017-07-01,2022-06-30
37,7,2007-07-01,2024-06-30
38,7,2017-07-01,2023-06-30
39,7,2015-07-01,2021-06-30
40,7,2011-07-01,2019-06-30
41,7,2013-07-01,2019-06-30
42,7,2009-07-01,2019-06-30
(42 Zeilen)
tid,vid,von,bis
1,1,2018-07-01,2020-06-30
2,2,2018-07-01,2021-06-30
3,3,2018-07-09,2019-06-30
4,4,2018-07-01,2021-06-30
5,5,2018-12-23,2020-06-30
6,6,2015-02-05,2019-06-30
7,7,2019-02-24,2021-06-30
(7 Zeilen)
sid,auspraegung,pid
1,1,9
2,1,1
3,1,5
4,1,9
5,1,10
6,1,4
7,1,10
8,1,4
9,1,5
10,1,6
11,1,6
12,1,1
13,1,1
14,1,4
15,1,2
16,1,8
17,1,8
18,1,10
19,1,1
20,1,2
21,1,5
22,1,6
23,1,7
24,1,10
25,1,1
26,1,4
27,1,3
28,1,9
29,1,6
30,1,10
31,1,1
32,1,4
33,1,4
34,1,7
35,1,9
36,1,10
37,1,1
38,1,3
39,1,10
40,1,9
41,1,3
42,1,5
1,0.5,6
1,0.5,10
3,0.5,7
4,0.5,10
4,0.5,6
6,0.5,5
7,0.5,8
7,0.5,9
9,0.5,4
10,0.5,8
10,0.5,10
11,0.5,8
14,0.5,5
15,0.5,4
15,0.5,6
16,0.5,6
16,0.5,9
17,0.5,6
17,0.5,9
18,0.5,8
18,0.5,6
20,0.5,6
20,0.5,7
21,0.5,4
22,0.5,8
23,0.5,5
23,0.5,8
24,0.5,9
26,0.5,5
26,0.5,7
27,0.5,8
28,0.5,7
28,0.5,8
29,0.5,8
30,0.5,9
32,0.5,5
33,0.5,2
34,0.5,9
34,0.5,5
35,0.5,8
35,0.5,7
38,0.5,4
38,0.5,8
39,0.5,8
39,0.5,9
40,0.5,6
40,0.5,8
41,0.5,8
42,0.5,7
42,0.5,4
(92 Zeilen)
