﻿VName;NName    ;Geschlecht;KlID;LID
Kim ;Hoerning;1;1;1
Dominique;Duehring;1;1;1
Jona;Flury;0;1;1
Robin;Reil;1;1;1
Harper ;Reinert;1;1;1
Elia;Duhrkoop;0;1;1
Benja;Gerjets;0;1;1
Finn;Gluding;1;1;1
Jamie;Gerngross;0;1;1
Sascha ;Fokken;1;1;1
Harper ;Horleman;1;1;1
Mika ;Bekkering;1;1;1
Adrian;Aalders;1;1;1
Janis;Bein;1;1;1
Florin;Reiners;1;1;1
Alex;Fleur;1;1;1
Lovis ;Hoopman;1;1;1
Sam;Reiman;1;1;1
Jule;Cordesmann;1;1;1
Maxi;Gersen;0;1;1
Marian;Cornelissen;0;1;1
Mohammed;Reijnkens;1;1;1
Kay;Reicher;0;1;1
Charlie;Flockmann;0;2;2
Quinn ;Gertje;0;2;2
Elia ;Reinema;0;2;2
Sidney;Folckers;0;2;2
Garbiel;Rehse;0;2;2
Sidney;Gertz;1;2;2
Ira ;Gilman;0;2;2
Charlie;Immohr;0;2;2
Alex ;Reinbeck;0;2;2
Luca;Eckman;0;2;2