sid,snachname,svorname,sgeb,snatio,groesse,gewicht,spielfuss,marktwert,technik,ausdauer,physis,mentalitaet,staerke
1,Reus,Marco,1983-07-20,DE,188,74,b,85000000,10,9,10,10,9
2,Bürki,Roman,1990-11-14,CH,192,83,l,14000000,5,8,9,7,8
3,Witsel,Axel,1989-01-12,BE,185,77,b,40000000,10,9,8,8,8
4,Götze,Mario,1992-06-03,DE,168,75,b,18000000,10,8,6,8,7
5,Alcacer,Paco,1993-08-30,ES,185,78,b,40000000,9,9,7,8,7
6,Balerdi,Leonardo,1999-01-26,AR,175,74,r,15000000,4,6,3,7,6
7,Müller,Thomas,1983-03-04,DE,183,80,b,45000000,8,9,5,10,7
8,Hummels,Mats,1988-12-16,DE,186,81,b,40000000,7,8,9,6,8
9,Martinez,Javi,1988-09-02,ES,190,83,b,30000000,8,8,7,10,9
10,Coman,Kingsley,1996-06-13,FR,178,75,b,50000000,9,9,8,7,6
11,Davies,Alphonso,2000-11-02,CA,170,71,l,10000000,6,7,5,6,6
12,Neuer,Manuel,1986-03-27,DE,193,89,r,22000000,7,7,9,9,9
13,Gulacsi,Peter,1990-05-06,HU,190,92,r,10000000,3,6,7,7,5
14,Orban,Willi,1992-11-03,HU,186,85,r,15000000,6,7,7,6,6
15,Halstenberg,Marcel,1991-09-27,DE,186,85,l,17000000,5,8,8,6,7
16,Sabitzer,Marcel,1994-03-17,AT,177,79,r,25000000,8,8,7,8,8
17,Bruma,Bruma,1994-10-24,PT,173,77,r,12500000,8,6,6,5,6
18,Poulsen,Yussuf,1994-06-05,DK,193,89,r,30000000,8,9,7,8,8
19,Trapp,Kevin,1990-07-08,DE,189,90,r,10000000,5,7,8,6,6
20,Willems,Jetro,1994-02-20,NL,169,75,l,6500000,5,6,4,5,5
21,Hasebe,Makoto,1984-05-03,JP,180,80,r,1000000,5,5,4,4,3
22,Kostic,Filip,1992-11-01,KR,184,86,l,15000000,7,7,7,6,7
23,Rode,Sebastian,1990-11-11,DE,179,80,r,3000000,5,5,6,4,4
24,Jovic,Luka,1997-12-23,KR,181,80,b,55000000,8,8,8,9,8
25,Özcan,Ramazan,1984-06-28,AT,187,83,l,400000,3,3,4,3,2
26,Bender,Sven,1998-04-27,DE,186,79,r,15000000,7,7,6,9,7
27,Weiser,Mitchel,1994-04-21,DE,177,77,r,12000000,7,6,6,6,6
28,Havertz,Kai,1999-06-11,DE,188,85,b,65000000,8,8,8,8,9
29,Bailey,Leon,1997-08-09,JM,178,74,b,35000000,9,7,7,7,8
30,Alario,Lucas,1992-10-08,AR,184,80,r,17000000,8,7,6,6,6
31,Jarstein,Rune,1984-09-28,NO,192,88,r,2000000,3,6,7,8,7
32,Stark,Niklas,1995-04-14,DE,190,85,r,20000000,7,7,7,7,6
33,Torunarigha,Jordan,1997-08-07,DE,191,91,l,10000000,5,8,8,5,6
34,Grujic,Marko,1996-04-13,CZ,191,83,r,18000000,8,6,7,7,6
35,Duda,Ondrej,1994-04-15,HR,181,78,r,15000000,8,6,6,6,6
36,Selke,Davie,1995-06-02,DE,194,88,r,20000000,7,8,7,8,7
37,Schubert,Markus,1998-10-02,DE,178,73,b,1000000,6,7,8,6,4
38,Wahlqvist,Linus,1996-05-23,SE,184,77,r,1250000,5,6,4,6,5
39,Kone,Moussa,1996-12-30,SE,175,74,b,4000000,6,7,8,6,6
40,Ebert,Patrick,1987-12-04,DE,177,78,b,600000,7,5,7,4,4
41,Kreuzer,Niklas,1993-02-20,DE,173,71,r,600000,5,4,6,5,5
42,Burnic,Dzenis,1998-05-22,DE,178,70,b,750000,6,4,5,6,6
(42 Zeilen)
