tid,tname,tvorname,tgeb,tnatio,ttelefon,system
1,Favre,Lucien,1957-11-02,CH,0176111,4-2-3-1
2,Kovac,Nico,1971-10-15,HR,0176222,4-2-3-1
3,Rangnick,Ralf,1958-06-29,DE,0176333,4-4-2
4,Hütter,Adi,1970-02-11,AT,0176444,3-4-1-2
5,Bosz,Peter,1963-11-21,NL,0176555,4-3-3
6,Dardai,Pal,1976-03-16,HU,0176666,4-2-3-1
7,Fiel,Christian,1980-03-12,DE,017859983,3-1-4-2
(7 Zeilen)
